Introducción a R y Quarto
…
Explorando el conjunto de datos de Star Wars

starwars

# A tibble: 87 × 14
   name     height  mass hair_color skin_color eye_color birth_year sex   gender
   <chr>     <int> <dbl> <chr>      <chr>      <chr>          <dbl> <chr> <chr> 
 1 Luke Sk…    172    77 blond      fair       blue            19   male  mascu…
 2 C-3PO       167    75 <NA>       gold       yellow         112   none  mascu…
 3 R2-D2        96    32 <NA>       white, bl… red             33   none  mascu…
 4 Darth V…    202   136 none       white      yellow          41.9 male  mascu…
 5 Leia Or…    150    49 brown      light      brown           19   fema… femin…
 6 Owen La…    178   120 brown, gr… light      blue            52   male  mascu…
 7 Beru Wh…    165    75 brown      light      blue            47   fema… femin…
 8 R5-D4        97    32 <NA>       white, red red             NA   none  mascu…
 9 Biggs D…    183    84 black      light      brown           24   male  mascu…
10 Obi-Wan…    182    77 auburn, w… fair       blue-gray       57   male  mascu…
# ℹ 77 more rows
# ℹ 5 more variables: homeworld <chr>, species <chr>, films <list>,
#   vehicles <list>, starships <list>
…
R base 🤢

starwars$bmi <- starwars$mass/(starwars$height/100)^2

tidyverse 😎

starwars_bmi <- 
  starwars %>% 
  mutate(bmi = mass/((height/100)^2)) %>% 
  select(bmi, everything()) # To see the created variable first

starwars_bmi

# A tibble: 87 × 15
     bmi name      height  mass hair_color skin_color eye_color birth_year sex  
   <dbl> <chr>      <int> <dbl> <chr>      <chr>      <chr>          <dbl> <chr>
 1  26.0 Luke Sky…    172    77 blond      fair       blue            19   male 
 2  26.9 C-3PO        167    75 <NA>       gold       yellow         112   none 
 3  34.7 R2-D2         96    32 <NA>       white, bl… red             33   none 
 4  33.3 Darth Va…    202   136 none       white      yellow          41.9 male 
 5  21.8 Leia Org…    150    49 brown      light      brown           19   fema…
 6  37.9 Owen Lars    178   120 brown, gr… light      blue            52   male 
 7  27.5 Beru Whi…    165    75 brown      light      blue            47   fema…
 8  34.0 R5-D4         97    32 <NA>       white, red red             NA   none 
 9  25.1 Biggs Da…    183    84 black      light      brown           24   male 
10  23.2 Obi-Wan …    182    77 auburn, w… fair       blue-gray       57   male 
# ℹ 77 more rows
# ℹ 6 more variables: gender <chr>, homeworld <chr>, species <chr>,
#   films <list>, vehicles <list>, starships <list>
…
