Introducción al Aprendizaje Automático
…
¡Este paso es crucial!

Debes revisar tus datos después de la receta para asegurarte de que las transformaciones se vean bien.

healthy_recipe |> 
  prep() |> 
  bake(new_data = healthyBehaviors_df)

# A tibble: 13,677 × 24
   DrinkFruitJuice EatFruit EatSalad EatPotatoes EatCarrots EatOtherVeggies
             <dbl>    <dbl>    <dbl>       <dbl>      <dbl>           <dbl>
 1               2        3        1           1          1               2
 2               2        7        6           5          5               6
 3               1        4        2           2          2               5
 4               2        2        1           2          2               3
 5               4        5        1           2          3               4
 6               2        1        2           1          1               2
 7               1        4        1           2          1               2
 8               4        2        2           1          2               3
 9               2        3        3           1          1               3
10               2        2        1           1          1               3
# ℹ 13,667 more rows
# ℹ 18 more variables: DrinkSoda <dbl>, DrinkMilk <dbl>, EatBreakfast <dbl>,
#   PhysicalActivity <dbl>, HoursTV <dbl>, HoursVideoGames <dbl>,
#   HoursSleep <dbl>, SportsDrinks <dbl>, DrinksWater <dbl>,
#   ConcussionSports <dbl>, DifficultyConcentrating <fct>, Sex_Male <dbl>,
#   Grade_X11 <dbl>, Grade_X12 <dbl>, Grade_X9 <dbl>,
#   SexOrientation_Gay.or.Lesbian <dbl>, SexOrientation_Heterosexual <dbl>, …
…
Tidy

tidy_model <- 
  mod_1 |>
  tidy(exponentiate = TRUE,
       conf.int = TRUE, 
       conf.level = .95) |>
  mutate(p.value = scales::pvalue(p.value))

tidy_model

Tidy

# A tibble: 24 × 7
   term            estimate std.error statistic p.value conf.low conf.high
   <chr>              <dbl>     <dbl>     <dbl> <chr>      <dbl>     <dbl>
 1 (Intercept)        3.28    0.157       7.57  <0.001     2.42      4.47 
 2 DrinkFruitJuice    1.03    0.0176      1.91  0.056      0.999     1.07 
 3 EatFruit           0.967   0.0180     -1.86  0.063      0.934     1.00 
 4 EatSalad           1.02    0.0238      0.726 0.468      0.971     1.07 
 5 EatPotatoes        0.988   0.0244     -0.475 0.635      0.942     1.04 
 6 EatCarrots         1.01    0.0262      0.545 0.586      0.963     1.07 
 7 EatOtherVeggies    0.957   0.0206     -2.14  0.032      0.919     0.996
 8 DrinkSoda          1.10    0.0182      5.26  <0.001     1.06      1.14 
 9 DrinkMilk          1.01    0.0160      0.569 0.569      0.978     1.04 
10 EatBreakfast       0.926   0.00954    -8.07  <0.001     0.909     0.943
# ℹ 14 more rows
…
La predicción

augment(mod_1, healthyBehaviors_df) |> 
  select(DifficultyConcentrating, .pred_class, .pred_0, .pred_1)

# A tibble: 13,677 × 4
   DifficultyConcentrating .pred_class .pred_0 .pred_1
   <fct>                   <fct>         <dbl>   <dbl>
 1 0                       0             0.567   0.433
 2 0                       0             0.856   0.144
 3 0                       0             0.750   0.250
 4 1                       0             0.597   0.403
 5 0                       0             0.570   0.430
 6 1                       1             0.252   0.748
 7 1                       0             0.548   0.452
 8 1                       0             0.659   0.341
 9 1                       0             0.762   0.238
10 0                       0             0.761   0.239
# ℹ 13,667 more rows
…
set.seed(1990)

analysis_boot <- bootstraps(analysis_train,
                            times = 1000)
analysis_boot

# Bootstrap sampling 
# A tibble: 1,000 × 2
   splits              id           
   <list>              <chr>        
 1 <split [7907/2952]> Bootstrap0001
 2 <split [7907/2868]> Bootstrap0002
 3 <split [7907/2927]> Bootstrap0003
 4 <split [7907/2892]> Bootstrap0004
 5 <split [7907/2910]> Bootstrap0005
 6 <split [7907/2908]> Bootstrap0006
 7 <split [7907/2932]> Bootstrap0007
 8 <split [7907/2919]> Bootstrap0008
 9 <split [7907/2905]> Bootstrap0009
10 <split [7907/2898]> Bootstrap0010
# ℹ 990 more rows

set.seed(1990)

analysis_loc <- loo_cv(analysis_train)

analysis_loc

# Leave-one-out cross-validation 
# A tibble: 7,907 × 2
   splits           id        
   <list>           <chr>     
 1 <split [7906/1]> Resample1 
 2 <split [7906/1]> Resample2 
 3 <split [7906/1]> Resample3 
 4 <split [7906/1]> Resample4 
 5 <split [7906/1]> Resample5 
 6 <split [7906/1]> Resample6 
 7 <split [7906/1]> Resample7 
 8 <split [7906/1]> Resample8 
 9 <split [7906/1]> Resample9 
10 <split [7906/1]> Resample10
# ℹ 7,897 more rows
…
