Técnicas de Regularización: Ridge, Lasso y Elastic Net usando tidymodels
…
# Lo inventé
penalty_grid <- grid_regular(penalty(range = c(-4, 4)), levels = 50)
penalty_grid

# A tibble: 50 × 1
    penalty
      <dbl>
 1 0.0001  
 2 0.000146
 3 0.000212
 4 0.000309
 5 0.000450
 6 0.000655
 7 0.000954
 8 0.00139 
 9 0.00202 
10 0.00295 
# ℹ 40 more rows

# Lo que recomendaría
lambda_grid <- grid_regular(penalty(), levels = 50)
lambda_grid

# A tibble: 50 × 1
    penalty
      <dbl>
 1 1   e-10
 2 1.60e-10
 3 2.56e-10
 4 4.09e-10
 5 6.55e-10
 6 1.05e- 9
 7 1.68e- 9
 8 2.68e- 9
 9 4.29e- 9
10 6.87e- 9
# ℹ 40 more rows
…
lasso_tune |> 
  collect_metrics()

# A tibble: 150 × 7
    penalty .metric     .estimator  mean     n std_err .config         
      <dbl> <chr>       <chr>      <dbl> <int>   <dbl> <chr>           
 1 1   e-10 accuracy    binary     0.575     5 0.00568 pre0_mod01_post0
 2 1   e-10 brier_class binary     0.289     5 0.00103 pre0_mod01_post0
 3 1   e-10 roc_auc     binary     0.604     5 0.00541 pre0_mod01_post0
 4 1.60e-10 accuracy    binary     0.575     5 0.00568 pre0_mod02_post0
 5 1.60e-10 brier_class binary     0.289     5 0.00103 pre0_mod02_post0
 6 1.60e-10 roc_auc     binary     0.604     5 0.00541 pre0_mod02_post0
 7 2.56e-10 accuracy    binary     0.575     5 0.00568 pre0_mod03_post0
 8 2.56e-10 brier_class binary     0.289     5 0.00103 pre0_mod03_post0
 9 2.56e-10 roc_auc     binary     0.604     5 0.00541 pre0_mod03_post0
10 4.09e-10 accuracy    binary     0.575     5 0.00568 pre0_mod04_post0
# ℹ 140 more rows
…
Revisar el ajuste en los datos de entrenamiento

texting_pred <- 
  augment(texting_fit, analysis_train) |> 
  select(TextingDriving, .pred_class, .pred_1, .pred_0)

texting_pred

# A tibble: 8,169 × 4
   TextingDriving .pred_class .pred_1 .pred_0
   <fct>          <fct>         <dbl>   <dbl>
 1 0              1             0.569   0.431
 2 0              0             0.406   0.594
 3 0              0             0.479   0.521
 4 0              1             0.544   0.456
 5 0              1             0.507   0.493
 6 0              0             0.454   0.546
 7 0              1             0.580   0.420
 8 0              0             0.462   0.538
 9 0              1             0.587   0.413
10 0              1             0.508   0.492
# ℹ 8,159 more rows
…
texting_pred |>
    roc_auc(truth = TextingDriving, .pred_1, event_level = "second")

# A tibble: 1 × 3
  .metric .estimator .estimate
  <chr>   <chr>          <dbl>
1 roc_auc binary         0.619

Verificar las estimaciones

texting_fit |> 
  extract_fit_parsnip() |> 
  tidy()

# A tibble: 51 × 3
   term                 estimate      penalty
   <chr>                   <dbl>        <dbl>
 1 (Intercept)           0.391   0.0000000001
 2 DrinkingDriver       -0.00902 0.0000000001
 3 WeaponCarrying        0.0695  0.0000000001
 4 WeaponCarryingSchool  0.0524  0.0000000001
 5 GunCarrying           0.109   0.0000000001
 6 UnsafeAtSchool        0.0525  0.0000000001
 7 InjuredInSchool       0.00744 0.0000000001
 8 PhysicalFight        -0.0484  0.0000000001
 9 SchoolPhysicalFight  -0.0359  0.0000000001
10 TimesSexualAbuse      0.0652  0.0000000001
# ℹ 41 more rows
…
Revisar Predicciones en los Datos de Prueba con yardstick

the_prediction <-  
  texting_last_fit |> 
  collect_predictions() |> 
  select(-.config, -.row)

the_prediction 

# A tibble: 2,725 × 5
   .pred_class .pred_0 .pred_1 id               TextingDriving
   <fct>         <dbl>   <dbl> <chr>            <fct>         
 1 1             0.375   0.625 train/test split 1             
 2 1             0.499   0.501 train/test split 0             
 3 1             0.224   0.776 train/test split 0             
 4 1             0.470   0.530 train/test split 1             
 5 1             0.335   0.665 train/test split 1             
 6 0             0.532   0.468 train/test split 0             
 7 0             0.541   0.459 train/test split 0             
 8 1             0.410   0.590 train/test split 0             
 9 0             0.530   0.470 train/test split 1             
10 1             0.478   0.522 train/test split 1             
# ℹ 2,715 more rows
…
